<svg id="Componente_10_1" data-name="Componente 10 – 1" xmlns="http://www.w3.org/2000/svg" xmlns:xlink="http://www.w3.org/1999/xlink" width="786.373" height="902" viewBox="0 0 786.373 902">
  <defs>
    <linearGradient id="linear-gradient" x1="0.163" y1="0.812" x2="0.978" y2="0.191" gradientUnits="objectBoundingBox">
      <stop offset="0" stop-color="#6716ff"/>
      <stop offset="0.253" stop-color="#6a15fa"/>
      <stop offset="0.512" stop-color="#7313ee"/>
      <stop offset="0.773" stop-color="#8210da"/>
      <stop offset="1" stop-color="#950dc2"/>
    </linearGradient>
  </defs>
  <g id="Grupo_950" data-name="Grupo 950" transform="translate(-1047.244 -20.948)">
    <path id="Caminho_7623" data-name="Caminho 7623" d="M1753.666,0H1081.1c-20.9,21.428-36.848,47.055-29.837,74.862,7.881,31.257,41.973,48.726,54.707,78.3,16.28,37.8-7.507,81.333-36.992,109.8s-66.17,50.918-86.164,86.852c-30.73,55.23-12.2,126.7,23.931,178.479s87.334,90.488,130.367,136.546,79.525,105.321,74.213,168.474c-1.937,23.019-9.308,45.969-16.544,68.688h558.886Z" transform="translate(79.951 20.948)" fill-rule="evenodd" fill="url(#linear-gradient)"/>
    <path id="Caminho_7647" data-name="Caminho 7647" d="M1575.569,113.849l-10.683,2.055-2.055,10.683-2.055-10.683-10.683-2.055,10.683-2.055,2.055-10.682,2.055,10.682Z" transform="translate(-28.621 53.882)" fill="#fff"/>
    <path id="Caminho_7648" data-name="Caminho 7648" d="M1768.014,217.252l-10.345-6.89-10.237,7.05,6.891-10.345-7.05-10.237,10.345,6.89,10.237-7.05-6.89,10.345Z" transform="translate(-69.005 -15.874)" fill="#fff"/>
    <path id="Caminho_7649" data-name="Caminho 7649" d="M1287.923,302.878l-5.346,1.028-1.029,5.346-1.028-5.346-5.346-1.028,5.346-1.029,1.028-5.346,1.029,5.346Z" transform="translate(-1.046 -30.245)" fill="#fff"/>
    <path id="Caminho_7650" data-name="Caminho 7650" d="M1377,788.889l-4.545-.021-1.707,4.213.021-4.545-4.213-1.706,4.545.021,1.706-4.213-.021,4.545Z" transform="translate(-14.201 -100.225)" fill="#fff"/>
    <path id="Caminho_7651" data-name="Caminho 7651" d="M1486.686,967.736l-4.117,2.328.635,4.687-2.328-4.117-4.687.635,4.117-2.329-.635-4.687L1482,968.37Z" transform="translate(-29.982 -126.369)" fill="#fff"/>
    <path id="Caminho_7652" data-name="Caminho 7652" d="M1793.251,976.274l-5.625,1.36-.824,5.728-1.36-5.625-5.728-.824,5.625-1.361.824-5.728,1.361,5.625Z" transform="translate(-73.675 -127.171)" fill="#fff"/>
    <path id="Caminho_7653" data-name="Caminho 7653" d="M1571.886,386.284l-6.4,4.307,1.625,7.54-4.307-6.4-7.54,1.626,6.4-4.307-1.626-7.54,4.307,6.4Z" transform="translate(-112.365 -138.482)" fill="#fff"/>
    <path id="Caminho_7654" data-name="Caminho 7654" d="M1280.5,96.243l-5.854-1.963-3.995,4.708,1.963-5.854-4.708-3.994,5.854,1.963,3.994-4.708-1.963,5.854Z" fill="#fff"/>
    <path id="Caminho_7655" data-name="Caminho 7655" d="M1763.592,468.788l-6.541,4.224,1.5,7.641-4.225-6.541-7.641,1.5,6.541-4.225-1.5-7.641,4.225,6.54Z" transform="translate(-68.92 -54.32)" fill="#fff"/>
    <path id="Caminho_7656" data-name="Caminho 7656" d="M1757.231,664.806l-5.54.185-1.884,5.214-.185-5.54-5.214-1.884,5.54-.185,1.884-5.213.185,5.54Z" transform="translate(-68.593 -82.194)" fill="#fff"/>
  </g>
</svg>
